{
  "rules": {
    "class-name": {
      "severity": "error"
    },
    "no-consecutive-blank-lines": {
      "severity": "error",
      "options": [
        1
      ]
    },
    "comment-format": {
      "severity": "warning",
      "options": "check-space"
    },
    "no-duplicate-super": {
      "severity": "warning"
    },
    "no-duplicate-switch-case": {
      "severity": "error"
    },
    "no-duplicate-imports": {
      "severity": "error"
    },
    "no-invalid-template-strings": {
      "severity": "warning"
    },
    "no-invalid-this": {
      "severity": "error"
    },
    "one-variable-per-declaration": {
      "severity": "error",
      "options": "ignore-for-loop"
    },
    "prefer-while": {
      "severity": "warning"
    },
    "return-undefined": {
      "severity": "error"
    },
    "no-angle-bracket-type-assertion": {
      "severity": "error"
    },
    "no-boolean-literal-compare": {
      "severity": "warning"
    },
    "no-unnecessary-callback-wrapper": {
      "severity": "warning"
    },
    "newline-per-chained-call": {
      "severity": "warning"
    },
    "no-null-keyword": {
      "severity": "error"
    },
    "curly": {
      "severity": "error"
    },
    "eofline": {
      "severity": "error"
    },
    "forin": {
      "severity": "error"
    },
    "indent": {
      "severity": "error",
      "options": [
        "spaces",
        4
      ]
    },
    "interface-name": {
      "severity": "error",
      "options": "never-prefix"
    },
    "max-line-length": {
      "severity": "error",
      "options": {
        "limit": 120
      }
    },
    "member-ordering": {
      "severity": "error",
      "options": {
        "order": "fields-first"
      }
    },
    "no-any": {
      "severity": "error"
    },
    "no-unsafe-any": {
      "severity": "error"
    },
    "no-arg": {
      "severity": "error"
    },
    "no-bitwise": {
      "severity": "error"
    },
    "no-console": {
      "severity": "error",
      "options": [
        "debug",
        "info",
        "time",
        "timeEnd",
        "trace"
      ]
    },
    "no-construct": {
      "severity": "warning"
    },
    "no-debugger": {
      "severity": "error"
    },
    "no-shadowed-variable": {
      "severity": "error"
    },
    "no-duplicate-variable": {
      "severity": "error"
    },
    "no-eval": {
      "severity": "error"
    },
    "no-require-imports": {
      "severity": "error"
    },
    "trailing-comma": {
      "severity": "error",
      "options": {
        "esSpecCompliant": false
      }
    },
    "no-trailing-whitespace": {
      "severity": "error"
    },
    "no-this-assignment": {
      "severity": "error"
    },
    "no-unused-expression": {
      "severity": "warning"
    },
    "no-unused-variable": {
      "severity": "warning"
    },
    "prefer-conditional-expression": {
      "severity": "warning"
    },
    "prefer-object-spread": {
      "severity": "warning"
    },
    "restrict-plus-operands": {
      "severity": "error"
    },
    "no-use-before-declare": {
      "severity": "error"
    },
    "no-var-keyword": {
      "severity": "error"
    },
    "switch-default": {
      "severity": "error"
    },
    "prefer-switch": {
      "severity": "warning"
    },
    "switch-final-break": {
      "severity": "error"
    },
    "no-var-requires": {
      "severity": "error"
    },
    "one-line": {
      "severity": "error",
      "options": [
        "check-catch",
        "check-else",
        "check-open-brace",
        "check-whitespace"
      ]
    },
    "quotemark": {
      "severity": "error",
      "options": [
        "single",
        "jsx-double"
      ]
    },
    "semicolon": {
      "severity": "error",
      "options": "always"
    },
    "triple-equals": {
      "severity": "error"
    },
    "typedef": {
      "severity": "error",
      "options": [
        "parameter",
        "arrow-call-signature",
        "arrow-parameter",
        "property-declaration",
        "variable-declaration",
        "call-signature",
        "member-variable-declaration"
      ]
    },
    "member-access": {
      "severity": "error",
      "options": "no-public"
    },
    "no-empty-interface": {
      "severity": "error"
    },
    "no-parameter-reassignment": {
      "severity": "error"
    },
    "only-arrow-functions": {
      "severity": "error"
    },
    "max-classes-per-file": {
      "severity": "error",
      "options": 1
    },
    "prefer-const": {
      "severity": "warning"
    },
    "prefer-readonly": {
      "severity": "warning"
    },
    "arrow-return-shorthand": {
      "severity": "warning"
    },
    "typeof-compare": {
      "severity": "error"
    },
    "use-isnan": {
      "severity": "error"
    },
    "typedef-whitespace": {
      "severity": "error",
      "options": {
        "call-signature": "nospace",
        "index-signature": "nospace",
        "parameter": "nospace",
        "property-declaration": "nospace",
        "variable-declaration": "nospace"
      }
    },
    "variable-name": {
      "severity": "error",
      "options": [
        "allow-leading-underscore",
        "allow-pascal-case",
        "require-const-for-all-caps",
        "check-format"
      ]
    },
    "whitespace": {
      "severity": "error",
      "options": [
        "check-branch",
        "check-decl",
        "check-operator",
        "check-module",
        "check-separator",
        "check-type",
        "check-typecast",
        "check-type-operator",
        "check-preblock"
      ]
    }
  }
}
